{
  message: { method: 'GET', url: '/api/self', body: {} },
  level: 'info',
  timestamp: '2024-05-01T11:00:33.597Z'
}
{
  message: { method: 'GET', url: '/api/newsposts?page=0&size=12', body: {} },
  level: 'info',
  timestamp: '2024-05-01T11:00:33.840Z'
}
{
  message: { method: 'GET', url: '/api/newsposts?page=0&size=12', body: {} },
  level: 'info',
  timestamp: '2024-05-01T11:00:34.057Z'
}
{
  message: { method: 'GET', url: '/api/newsposts?page=0&size=12', body: {} },
  level: 'info',
  timestamp: '2024-05-01T11:02:51.262Z'
}
{
  message: { method: 'GET', url: '/api/self', body: {} },
  level: 'info',
  timestamp: '2024-05-01T11:02:51.278Z'
}
{
  message: 'No metadata for "User" was found.',
  stack: 'EntityMetadataNotFoundError: No metadata for "User" was found.\n' +
    '    at DataSource.getMetadata (D:\\Web\\repos\\hw20-websockets\\server\\node_modules\\src\\data-source\\DataSource.ts:450:30)\n' +
    '    at Repository.get metadata [as metadata] (D:\\Web\\repos\\hw20-websockets\\server\\node_modules\\src\\repository\\Repository.ts:53:40)\n' +
    '    at Repository.createQueryBuilder (D:\\Web\\repos\\hw20-websockets\\server\\node_modules\\src\\repository\\Repository.ts:82:18)\n' +
    '    at AuthRepository.<anonymous> (D:\\Web\\repos\\hw20-websockets\\server\\services\\auth.service.ts:46:10)\n' +
    '    at step (D:\\Web\\repos\\hw20-websockets\\server\\services\\auth.service.ts:33:23)\n' +
    '    at Object.next (D:\\Web\\repos\\hw20-websockets\\server\\services\\auth.service.ts:14:53)\n' +
    '    at D:\\Web\\repos\\hw20-websockets\\server\\services\\auth.service.ts:8:71\n' +
    '    at new Promise (<anonymous>)\n' +
    '    at __awaiter (D:\\Web\\repos\\hw20-websockets\\server\\services\\auth.service.ts:4:12)\n' +
    '    at Strategy.AuthRepository.auth [as _verify] (D:\\Web\\repos\\hw20-websockets\\server\\services\\auth.service.ts:33:63)',
  level: 'error',
  timestamp: '2024-05-01T11:02:51.306Z'
}
{
  message: { method: 'GET', url: '/api/newsposts?page=0&size=12', body: {} },
  level: 'info',
  timestamp: '2024-05-01T11:02:51.348Z'
}
{
  message: { method: 'GET', url: '/api/self', body: {} },
  level: 'info',
  timestamp: '2024-05-01T11:04:24.650Z'
}
{
  message: { method: 'GET', url: '/api/newsposts?page=0&size=12', body: {} },
  level: 'info',
  timestamp: '2024-05-01T11:04:24.788Z'
}
{
  message: { method: 'GET', url: '/api/newsposts?page=0&size=12', body: {} },
  level: 'info',
  timestamp: '2024-05-01T11:04:24.945Z'
}
{
  message: { method: 'GET', url: '/api/self', body: {} },
  level: 'info',
  timestamp: '2024-05-01T11:04:37.674Z'
}
{
  message: { method: 'GET', url: '/api/newsposts?page=0&size=12', body: {} },
  level: 'info',
  timestamp: '2024-05-01T11:04:37.925Z'
}
{
  message: { method: 'GET', url: '/api/newsposts?page=0&size=12', body: {} },
  level: 'info',
  timestamp: '2024-05-01T11:04:37.968Z'
}
{
  message: { method: 'GET', url: '/api/self', body: {} },
  level: 'info',
  timestamp: '2024-05-01T11:06:46.996Z'
}
{
  message: { method: 'GET', url: '/api/newsposts?page=0&size=12', body: {} },
  level: 'info',
  timestamp: '2024-05-01T11:06:47.175Z'
}
{
  message: { method: 'GET', url: '/api/newsposts?page=0&size=12', body: {} },
  level: 'info',
  timestamp: '2024-05-01T11:06:47.212Z'
}
{
  message: { method: 'GET', url: '/api/self', body: {} },
  level: 'info',
  timestamp: '2024-05-01T11:07:25.856Z'
}
{
  message: { method: 'GET', url: '/api/newsposts?page=0&size=12', body: {} },
  level: 'info',
  timestamp: '2024-05-01T11:07:26.429Z'
}
{
  message: { method: 'GET', url: '/api/newsposts?page=0&size=12', body: {} },
  level: 'info',
  timestamp: '2024-05-01T11:07:26.449Z'
}
{
  message: { method: 'GET', url: '/api/self', body: {} },
  level: 'info',
  timestamp: '2024-05-01T11:10:39.547Z'
}
{
  message: { method: 'GET', url: '/api/newsposts?page=0&size=12', body: {} },
  level: 'info',
  timestamp: '2024-05-01T11:10:39.707Z'
}
{
  message: { method: 'GET', url: '/api/newsposts?page=0&size=12', body: {} },
  level: 'info',
  timestamp: '2024-05-01T11:10:39.923Z'
}
{
  message: { method: 'GET', url: '/api/self', body: {} },
  level: 'info',
  timestamp: '2024-05-01T11:13:19.970Z'
}
{
  message: { method: 'GET', url: '/api/newsposts?page=0&size=12', body: {} },
  level: 'info',
  timestamp: '2024-05-01T11:13:20.166Z'
}
{
  message: { method: 'GET', url: '/api/newsposts?page=0&size=12', body: {} },
  level: 'info',
  timestamp: '2024-05-01T11:13:20.188Z'
}
{
  message: { method: 'GET', url: '/api/newsposts?page=0&size=12', body: {} },
  level: 'info',
  timestamp: '2024-05-01T11:14:40.937Z'
}
{
  message: { method: 'GET', url: '/api/self', body: {} },
  level: 'info',
  timestamp: '2024-05-01T11:14:40.967Z'
}
{
  message: 'No metadata for "User" was found.',
  stack: 'EntityMetadataNotFoundError: No metadata for "User" was found.\n' +
    '    at DataSource.getMetadata (D:\\Web\\repos\\hw20-websockets\\server\\node_modules\\src\\data-source\\DataSource.ts:450:30)\n' +
    '    at Repository.get metadata [as metadata] (D:\\Web\\repos\\hw20-websockets\\server\\node_modules\\src\\repository\\Repository.ts:53:40)\n' +
    '    at Repository.createQueryBuilder (D:\\Web\\repos\\hw20-websockets\\server\\node_modules\\src\\repository\\Repository.ts:82:18)\n' +
    '    at AuthRepository.<anonymous> (D:\\Web\\repos\\hw20-websockets\\server\\services\\auth.service.ts:46:10)\n' +
    '    at step (D:\\Web\\repos\\hw20-websockets\\server\\services\\auth.service.ts:33:23)\n' +
    '    at Object.next (D:\\Web\\repos\\hw20-websockets\\server\\services\\auth.service.ts:14:53)\n' +
    '    at D:\\Web\\repos\\hw20-websockets\\server\\services\\auth.service.ts:8:71\n' +
    '    at new Promise (<anonymous>)\n' +
    '    at __awaiter (D:\\Web\\repos\\hw20-websockets\\server\\services\\auth.service.ts:4:12)\n' +
    '    at Strategy.AuthRepository.auth [as _verify] (D:\\Web\\repos\\hw20-websockets\\server\\services\\auth.service.ts:33:63)',
  level: 'error',
  timestamp: '2024-05-01T11:14:41.036Z'
}
{
  message: { method: 'GET', url: '/api/newsposts?page=0&size=12', body: {} },
  level: 'info',
  timestamp: '2024-05-01T11:14:41.046Z'
}
{
  message: { method: 'GET', url: '/api/self', body: {} },
  level: 'info',
  timestamp: '2024-05-01T11:14:43.834Z'
}
{
  message: { method: 'GET', url: '/api/newsposts?page=0&size=12', body: {} },
  level: 'info',
  timestamp: '2024-05-01T11:14:43.961Z'
}
{
  message: { method: 'GET', url: '/api/newsposts?page=0&size=12', body: {} },
  level: 'info',
  timestamp: '2024-05-01T11:14:43.987Z'
}
{
  message: { method: 'GET', url: '/api/self', body: {} },
  level: 'info',
  timestamp: '2024-05-01T11:18:22.990Z'
}
{
  message: { method: 'GET', url: '/api/newsposts?page=0&size=12', body: {} },
  level: 'info',
  timestamp: '2024-05-01T11:18:23.219Z'
}
{
  message: { method: 'GET', url: '/api/newsposts?page=0&size=12', body: {} },
  level: 'info',
  timestamp: '2024-05-01T11:18:23.326Z'
}
{
  message: { method: 'GET', url: '/api/self', body: {} },
  level: 'info',
  timestamp: '2024-05-01T11:18:44.401Z'
}
{
  message: { method: 'GET', url: '/api/newsposts?page=0&size=12', body: {} },
  level: 'info',
  timestamp: '2024-05-01T11:18:45.726Z'
}
{
  message: { method: 'GET', url: '/api/newsposts?page=0&size=12', body: {} },
  level: 'info',
  timestamp: '2024-05-01T11:18:45.743Z'
}
{
  message: { method: 'GET', url: '/api/self', body: {} },
  level: 'info',
  timestamp: '2024-05-01T11:18:49.244Z'
}
{
  message: { method: 'GET', url: '/api/newsposts?page=0&size=12', body: {} },
  level: 'info',
  timestamp: '2024-05-01T11:18:49.400Z'
}
{
  message: { method: 'GET', url: '/api/newsposts?page=0&size=12', body: {} },
  level: 'info',
  timestamp: '2024-05-01T11:18:49.411Z'
}
{
  message: {
    method: 'POST',
    url: '/api/newsposts',
    body: { title: '3334', text: '343434' }
  },
  level: 'info',
  timestamp: '2024-05-01T11:19:01.541Z'
}
{
  message: { method: 'GET', url: '/api/newsposts?page=0&size=12', body: {} },
  level: 'info',
  timestamp: '2024-05-01T11:19:01.550Z'
}
{
  message: { method: 'GET', url: '/api/newsposts?page=0&size=12', body: {} },
  level: 'info',
  timestamp: '2024-05-01T11:19:01.638Z'
}
{
  message: {
    method: 'POST',
    url: '/api/login',
    body: { email: 'a@a.a', password: '11111111' }
  },
  level: 'info',
  timestamp: '2024-05-01T11:19:17.853Z'
}
{
  message: { method: 'GET', url: '/api/newsposts?page=0&size=12', body: {} },
  level: 'info',
  timestamp: '2024-05-01T11:19:19.929Z'
}
{
  message: { method: 'GET', url: '/api/newsposts?page=0&size=12', body: {} },
  level: 'info',
  timestamp: '2024-05-01T11:19:19.940Z'
}
{
  message: { method: 'GET', url: '/api/newsposts?page=0&size=12', body: {} },
  level: 'info',
  timestamp: '2024-05-01T11:19:26.884Z'
}
{
  message: {
    method: 'POST',
    url: '/api/newsposts',
    body: { title: '444566', text: '6666667' }
  },
  level: 'info',
  timestamp: '2024-05-01T11:19:26.895Z'
}
{
  message: { method: 'GET', url: '/api/newsposts?page=0&size=12', body: {} },
  level: 'info',
  timestamp: '2024-05-01T11:19:26.900Z'
}
{
  message: { method: 'GET', url: '/api/self', body: {} },
  level: 'info',
  timestamp: '2024-05-01T11:19:38.623Z'
}
{
  message: 'The "data" argument must be of type string or an instance of Buffer, TypedArray, or DataView. Received undefined',
  stack: 'TypeError: The "data" argument must be of type string or an instance of Buffer, TypedArray, or DataView. Received undefined\n' +
    '    at Hash.update (node:internal/crypto/hash:104:11)\n' +
    '    at AuthRepository.hash (D:\\Web\\repos\\hw20-websockets\\server\\services\\auth.service.ts:20:40)\n' +
    '    at AuthRepository.<anonymous> (D:\\Web\\repos\\hw20-websockets\\server\\services\\auth.service.ts:41:23)\n' +
    '    at step (D:\\Web\\repos\\hw20-websockets\\server\\services\\auth.service.ts:33:23)\n' +
    '    at Object.next (D:\\Web\\repos\\hw20-websockets\\server\\services\\auth.service.ts:14:53)\n' +
    '    at D:\\Web\\repos\\hw20-websockets\\server\\services\\auth.service.ts:8:71\n' +
    '    at new Promise (<anonymous>)\n' +
    '    at __awaiter (D:\\Web\\repos\\hw20-websockets\\server\\services\\auth.service.ts:4:12)\n' +
    '    at Strategy.AuthRepository.auth [as _verify] (D:\\Web\\repos\\hw20-websockets\\server\\services\\auth.service.ts:33:63)\n' +
    '    at Strategy.authenticate (D:\\Web\\repos\\hw20-websockets\\server\\node_modules\\passport-http-bearer\\lib\\strategy.js:132:10)',
  level: 'error',
  timestamp: '2024-05-01T11:19:38.630Z'
}
{
  message: { method: 'GET', url: '/api/newsposts?page=0&size=12', body: {} },
  level: 'info',
  timestamp: '2024-05-01T11:19:38.804Z'
}
{
  message: { method: 'GET', url: '/api/newsposts?page=0&size=12', body: {} },
  level: 'info',
  timestamp: '2024-05-01T11:19:39.042Z'
}
{
  message: {
    method: 'POST',
    url: '/api/login',
    body: { email: 'a@a.a', password: '11111111' }
  },
  level: 'info',
  timestamp: '2024-05-01T11:20:00.076Z'
}
{
  message: { method: 'GET', url: '/api/self', body: {} },
  level: 'info',
  timestamp: '2024-05-01T11:20:03.878Z'
}
{
  message: { method: 'GET', url: '/api/newsposts?page=0&size=12', body: {} },
  level: 'info',
  timestamp: '2024-05-01T11:20:06.408Z'
}
{
  message: { method: 'GET', url: '/api/newsposts?page=0&size=12', body: {} },
  level: 'info',
  timestamp: '2024-05-01T11:20:06.421Z'
}
{
  message: { method: 'GET', url: '/api/newsposts?page=0&size=12', body: {} },
  level: 'info',
  timestamp: '2024-05-01T11:20:12.481Z'
}
{
  message: { method: 'GET', url: '/api/newsposts?page=0&size=12', body: {} },
  level: 'info',
  timestamp: '2024-05-01T11:20:12.496Z'
}
{
  message: { method: 'GET', url: '/api/self', body: {} },
  level: 'info',
  timestamp: '2024-05-01T11:20:21.406Z'
}
{
  message: { method: 'GET', url: '/api/newsposts?page=0&size=12', body: {} },
  level: 'info',
  timestamp: '2024-05-01T11:20:21.556Z'
}
{
  message: { method: 'GET', url: '/api/newsposts?page=0&size=12', body: {} },
  level: 'info',
  timestamp: '2024-05-01T11:20:21.565Z'
}
{
  message: {
    method: 'POST',
    url: '/api/login',
    body: { email: 'a@a.a', password: '11111111' }
  },
  level: 'info',
  timestamp: '2024-05-01T11:20:41.678Z'
}
{
  message: { method: 'GET', url: '/api/newsposts?page=0&size=12', body: {} },
  level: 'info',
  timestamp: '2024-05-01T11:21:04.843Z'
}
{
  message: { method: 'GET', url: '/api/newsposts?page=0&size=12', body: {} },
  level: 'info',
  timestamp: '2024-05-01T11:21:04.925Z'
}
{
  message: { method: 'GET', url: '/api/newsposts?page=0&size=12', body: {} },
  level: 'info',
  timestamp: '2024-05-01T11:21:21.833Z'
}
{
  message: {
    method: 'POST',
    url: '/api/newsposts',
    body: { title: '0000', text: '88888' }
  },
  level: 'info',
  timestamp: '2024-05-01T11:21:21.836Z'
}
{
  message: { method: 'GET', url: '/api/newsposts?page=0&size=12', body: {} },
  level: 'info',
  timestamp: '2024-05-01T11:21:21.924Z'
}
{
  message: {
    method: 'POST',
    url: '/api/login',
    body: { email: 'b@b.b', password: '22222222' }
  },
  level: 'info',
  timestamp: '2024-05-01T11:21:53.749Z'
}
{
  message: { method: 'GET', url: '/api/newsposts?page=0&size=12', body: {} },
  level: 'info',
  timestamp: '2024-05-01T11:21:56.901Z'
}
{
  message: { method: 'GET', url: '/api/newsposts?page=0&size=12', body: {} },
  level: 'info',
  timestamp: '2024-05-01T11:21:56.909Z'
}
{
  message: { method: 'GET', url: '/api/newsposts?page=0&size=12', body: {} },
  level: 'info',
  timestamp: '2024-05-01T11:22:03.438Z'
}
{
  message: {
    method: 'POST',
    url: '/api/newsposts',
    body: { title: 'uuu', text: 'uuu' }
  },
  level: 'info',
  timestamp: '2024-05-01T11:22:03.443Z'
}
{
  message: { method: 'GET', url: '/api/newsposts?page=0&size=12', body: {} },
  level: 'info',
  timestamp: '2024-05-01T11:22:03.531Z'
}
{
  message: { method: 'GET', url: '/api/self', body: {} },
  level: 'info',
  timestamp: '2024-05-01T11:22:16.376Z'
}
{
  message: { method: 'GET', url: '/api/newsposts?page=0&size=12', body: {} },
  level: 'info',
  timestamp: '2024-05-01T11:22:16.563Z'
}
{
  message: { method: 'GET', url: '/api/newsposts?page=0&size=12', body: {} },
  level: 'info',
  timestamp: '2024-05-01T11:22:16.912Z'
}
{
  message: { method: 'GET', url: '/api/newsposts/40', body: {} },
  level: 'info',
  timestamp: '2024-05-01T11:22:18.587Z'
}
{
  message: { method: 'GET', url: '/api/newsposts/40', body: {} },
  level: 'info',
  timestamp: '2024-05-01T11:22:18.606Z'
}
{
  message: { method: 'DELETE', url: '/api/newsposts/40', body: {} },
  level: 'info',
  timestamp: '2024-05-01T11:22:19.516Z'
}
{
  message: { method: 'GET', url: '/api/newsposts?page=0&size=12', body: {} },
  level: 'info',
  timestamp: '2024-05-01T11:22:19.563Z'
}
{
  message: { method: 'GET', url: '/api/newsposts?page=0&size=12', body: {} },
  level: 'info',
  timestamp: '2024-05-01T11:22:19.572Z'
}
{
  message: { method: 'GET', url: '/api/newsposts/39', body: {} },
  level: 'info',
  timestamp: '2024-05-01T11:22:20.276Z'
}
{
  message: { method: 'GET', url: '/api/newsposts/39', body: {} },
  level: 'info',
  timestamp: '2024-05-01T11:22:20.291Z'
}
{
  message: { method: 'GET', url: '/api/newsposts?page=0&size=12', body: {} },
  level: 'info',
  timestamp: '2024-05-01T11:22:21.238Z'
}
{
  message: { method: 'DELETE', url: '/api/newsposts/39', body: {} },
  level: 'info',
  timestamp: '2024-05-01T11:22:21.239Z'
}
{
  message: { method: 'GET', url: '/api/newsposts?page=0&size=12', body: {} },
  level: 'info',
  timestamp: '2024-05-01T11:22:21.247Z'
}
{
  message: {
    method: 'POST',
    url: '/api/newsposts',
    body: { title: 'ggg', text: 'ggg' }
  },
  level: 'info',
  timestamp: '2024-05-01T11:22:26.545Z'
}
{
  message: { method: 'GET', url: '/api/newsposts?page=0&size=12', body: {} },
  level: 'info',
  timestamp: '2024-05-01T11:22:26.554Z'
}
{
  message: { method: 'GET', url: '/api/newsposts?page=0&size=12', body: {} },
  level: 'info',
  timestamp: '2024-05-01T11:22:26.567Z'
}
{
  message: { method: 'GET', url: '/api/self', body: {} },
  level: 'info',
  timestamp: '2024-05-01T11:22:37.582Z'
}
{
  message: { method: 'GET', url: '/api/newsposts?page=0&size=12', body: {} },
  level: 'info',
  timestamp: '2024-05-01T11:22:38.124Z'
}
{
  message: { method: 'GET', url: '/api/newsposts?page=0&size=12', body: {} },
  level: 'info',
  timestamp: '2024-05-01T11:22:38.135Z'
}
{
  message: { method: 'GET', url: '/api/self', body: {} },
  level: 'info',
  timestamp: '2024-05-01T11:22:41.444Z'
}
{
  message: { method: 'GET', url: '/api/newsposts?page=0&size=12', body: {} },
  level: 'info',
  timestamp: '2024-05-01T11:22:41.745Z'
}
{
  message: { method: 'GET', url: '/api/newsposts?page=0&size=12', body: {} },
  level: 'info',
  timestamp: '2024-05-01T11:22:41.751Z'
}
{
  message: { method: 'GET', url: '/api/self', body: {} },
  level: 'info',
  timestamp: '2024-05-01T11:22:46.295Z'
}
{
  message: { method: 'GET', url: '/api/newsposts?page=0&size=12', body: {} },
  level: 'info',
  timestamp: '2024-05-01T11:22:46.463Z'
}
{
  message: { method: 'GET', url: '/api/newsposts?page=0&size=12', body: {} },
  level: 'info',
  timestamp: '2024-05-01T11:22:46.500Z'
}
